   SIDs         List of problems
----------      ----------------
*********:	7 9 10 11 18	<-- Use this list if your SID is missing.
*****0029:	4 8 9 16 17 
*****0083:	1 2 9 12 15 
*****0235:	1 5 9 15 20 
*****0320:	1 2 5 11 13 
*****0332:	4 5 6 16 17 
*****0335:	1 5 7 14 18 
*****0364:	1 2 8 12 15 
*****0415:	3 8 10 13 19 
*****0598:	5 7 10 12 13 
*****0862:	1 8 9 12 14 
*****1024:	1 6 7 14 15 
*****1057:	3 7 10 14 17 
*****1154:	3 7 9 12 20 
*****1156:	1 4 7 18 20 
*****1261:	1 2 10 15 18 
*****1403:	1 4 10 12 14 
*****1500:	1 8 9 14 19 
*****1614:	3 4 7 11 19 
*****1619:	2 5 7 12 14 
*****1631:	1 5 10 17 20 
*****1641:	6 7 10 13 17 
*****1645:	2 6 9 11 17 
*****1691:	3 6 8 12 16 
*****1747:	1 3 4 17 20 
*****1773:	4 8 10 17 18 
*****1848:	5 7 8 14 18 
*****1881:	1 7 8 15 20 
*****2255:	1 2 3 12 17 
*****2299:	6 7 8 16 20 
*****2333:	6 8 10 14 15 
*****2538:	1 8 9 11 12 
*****2596:	3 7 9 14 17 
*****2651:	7 8 10 17 19 
*****2804:	4 8 9 19 20 
*****2826:	3 7 9 13 20 
*****2873:	1 5 9 18 20 
*****2943:	1 6 7 11 18 
*****3014:	4 5 10 12 17 
*****3063:	5 7 8 13 17 
*****3176:	2 4 8 12 18 
*****3298:	2 5 8 11 12 
*****3398:	1 3 4 15 17 
*****3404:	4 6 10 12 18 
*****3412:	4 8 10 12 20 
*****3494:	2 4 10 17 20 
*****3536:	1 6 7 13 14 
*****3550:	3 5 9 11 12 
*****3559:	1 6 8 16 20 
*****3571:	6 8 10 11 19 
*****3637:	2 6 9 16 19 
*****3699:	1 4 5 12 18 
*****3707:	7 8 9 11 14 
*****3807:	2 3 10 13 17 
*****3833:	2 3 10 14 19 
*****3868:	3 9 10 11 18 
*****3911:	1 3 8 13 20 
*****4047:	3 9 10 13 17 
*****4218:	2 3 7 12 17 
*****4311:	2 5 7 14 19 
*****4323:	5 8 9 15 17 
*****4519:	6 7 10 14 18 
*****4590:	1 3 5 18 19 
*****4605:	1 3 7 18 19 
*****4730:	3 8 10 13 14 
*****4871:	2 6 10 14 16 
*****4951:	5 7 8 12 20 
*****5663:	5 7 10 13 19 
*****5718:	6 7 9 17 20 
*****5797:	1 5 10 14 18 
*****5886:	3 6 8 15 19 
*****5940:	1 3 8 11 12 
*****6012:	4 6 10 11 19 
*****6049:	7 8 9 12 19 
*****6092:	4 6 7 15 19 
*****6109:	4 6 9 15 18 
*****6120:	1 7 10 11 16 
*****6244:	3 6 9 11 19 
*****6466:	3 5 7 14 15 
*****6577:	6 7 9 11 12 
*****6905:	1 2 3 12 13 
*****6931:	1 6 7 12 14 
*****6932:	5 9 10 12 16 
*****7141:	1 2 7 13 15 
*****7499:	1 5 9 16 19 
*****7557:	6 9 10 11 12 
*****7669:	3 5 6 13 14 
*****7843:	1 4 6 11 17 
*****7858:	5 6 7 15 18 
*****8019:	2 6 7 17 19 
*****8079:	2 3 9 16 18 
*****8115:	3 4 10 15 20 
*****8126:	1 9 10 12 15 
*****8253:	1 5 9 12 16 
*****8393:	4 7 9 11 19 
*****8401:	1 2 3 14 15 
*****8494:	2 8 10 17 20 
*****8527:	1 7 8 16 18 
*****8672:	4 5 9 16 20 
*****8685:	3 5 6 15 20 
*****9002:	2 3 9 15 16 
*****9095:	3 4 10 11 17 
*****9098:	3 6 10 11 15 
*****9164:	3 6 9 11 20 
*****9251:	6 7 10 14 19 
*****9296:	1 2 10 15 20 
*****9392:	2 3 7 16 20 
*****9445:	1 5 10 13 17 
*****9482:	2 5 9 13 19 
*****9507:	6 7 9 12 19 
*****9693:	2 4 7 15 18 
*****9982:	1 3 8 11 13 
