   SIDs         List of problems
----------      ----------------
*********:	6 7 9 11 17 	<-- Use this list if your SID is missing.
*****0029:	2 6 8 12 18 
*****0083:	5 9 10 13 18 
*****0235:	2 4 8 11 17 
*****0320:	3 6 9 11 15 
*****0332:	1 7 9 13 14 
*****0335:	1 5 8 18 20 
*****0364:	2 7 10 15 17 
*****0415:	2 6 8 12 14 
*****0598:	2 5 8 14 19 
*****0862:	1 4 8 12 20 
*****1024:	3 7 8 11 20 
*****1057:	1 2 8 11 14 
*****1154:	1 5 6 11 19 
*****1156:	5 8 9 18 19 
*****1261:	3 5 9 11 20 
*****1403:	2 8 10 13 18 
*****1500:	1 3 9 15 16 
*****1614:	2 6 9 12 16 
*****1619:	4 8 10 13 17 
*****1631:	1 7 9 14 19 
*****1641:	4 5 6 15 16 
*****1645:	4 8 9 13 17 
*****1691:	4 5 8 13 19 
*****1747:	5 8 9 15 18 
*****1773:	3 5 8 16 17 
*****1848:	1 6 8 16 18 
*****1881:	2 4 6 19 20 
*****2255:	3 6 9 11 19 
*****2299:	3 7 10 13 17 
*****2333:	2 5 6 15 17 
*****2538:	4 8 10 13 18 
*****2596:	3 7 10 11 19 
*****2651:	3 8 10 11 12 
*****2804:	5 6 8 13 20 
*****2826:	4 8 9 15 16 
*****2873:	1 4 10 14 16 
*****2943:	2 6 10 14 19 
*****3014:	4 7 9 15 18 
*****3063:	2 5 8 11 20 
*****3176:	4 6 7 11 19 
*****3298:	2 3 10 12 13 
*****3398:	1 5 7 11 16 
*****3404:	5 8 9 12 15 
*****3412:	2 5 6 14 17 
*****3494:	6 7 8 15 19 
*****3536:	2 6 8 12 15 
*****3550:	2 4 10 11 17 
*****3559:	1 8 9 12 20 
*****3571:	2 3 4 15 18 
*****3637:	6 8 10 15 18 
*****3699:	1 2 6 12 18 
*****3707:	3 6 9 13 20 
*****3807:	2 6 8 19 20 
*****3833:	8 9 10 11 18 
*****3868:	4 6 9 15 17 
*****3911:	1 2 5 11 18 
*****4047:	3 6 10 15 19 
*****4218:	3 5 7 14 18 
*****4311:	2 4 5 12 15 
*****4323:	3 6 9 13 16 
*****4519:	2 9 10 17 19 
*****4590:	1 6 9 15 19 
*****4605:	1 4 10 11 18 
*****4730:	3 7 8 13 15 
*****4871:	2 3 6 12 19 
*****4951:	3 5 9 17 18 
*****5663:	5 6 8 16 20 
*****5718:	3 9 10 11 18 
*****5797:	2 3 6 14 18 
*****5886:	3 5 7 15 17 
*****5940:	3 5 9 14 16 
*****6012:	2 3 7 12 15 
*****6049:	3 4 10 12 13 
*****6092:	6 7 8 13 18 
*****6109:	4 6 7 11 12 
*****6120:	3 6 9 14 19 
*****6244:	2 3 5 11 12 
*****6466:	3 6 7 14 19 
*****6577:	1 3 10 11 12 
*****6905:	2 4 7 15 19 
*****6931:	5 8 9 17 18 
*****6932:	3 4 8 13 18 
*****7141:	8 9 10 14 15 
*****7499:	1 3 5 17 19 
*****7557:	4 6 10 14 15 
*****7669:	1 4 5 11 18 
*****7843:	2 3 8 13 19 
*****7858:	1 6 10 14 17 
*****8019:	8 9 10 18 20 
*****8079:	2 9 10 16 18 
*****8115:	1 8 10 14 18 
*****8126:	3 6 10 14 20 
*****8253:	3 5 9 11 18 
*****8393:	4 7 10 11 13 
*****8401:	2 3 9 11 18 
*****8494:	3 5 10 14 20 
*****8527:	5 6 7 14 20 
*****8672:	2 5 7 15 18 
*****8685:	2 7 9 17 19 
*****9002:	1 2 6 11 14 
*****9095:	4 8 10 11 20 
*****9098:	3 8 9 15 18 
*****9164:	4 6 7 12 17 
*****9251:	2 5 7 16 19 
*****9296:	3 5 8 13 17 
*****9392:	1 2 5 13 16 
*****9445:	2 8 9 13 19 
*****9482:	2 6 10 13 14 
*****9507:	4 6 7 16 19 
*****9693:	4 7 10 12 14 
*****9982:	8 9 10 11 12 
